…
prcpt_data =
  bind_rows(prcpt2017_data, prcpt2018_data) %>%
  mutate(
    month = month.abb[month]
  )
prcpt_data
```

    ## # A tibble: 24 x 3
    ##    month total year 
    ##    <chr> <dbl> <chr>
    ##  1 Jan    2.34 2017 
    ##  2 Feb    1.46 2017 
    ##  3 Mar    3.57 2017 
    ##  4 Apr    3.99 2017 
    ##  5 May    5.64 2017 
    ##  6 Jun    1.4  2017 
    ##  7 Jul    7.09 2017 
    ##  8 Aug    4.44 2017 
    ##  9 Sep    1.95 2017 
    ## 10 Oct    0    2017 
    ## # ... with 14 more rows
…
